Import the fatty acid composition dataset — fattyAcidComposition • bugphyzz
…
    fattyAcidComposition.Rd

    fattyAcidComposition returns a data frame with data about the
fatty acid composition of microbes.

fattyAcidComposition()

    Value

    A tidy data frame of fattyAcidComposition from customlinks.tsv

    Examples

fattyAcidComposition()
#> # A tibble: 138,496 × 14
#>    NCBI_ID Genome_ID Accession_ID Taxon_name Attribute Attribute_source Evidence
#>      <int> <lgl>     <lgl>        <chr>      <chr>     <chr>            <chr>   
#>  1     562 NA        NA           Escherich… Fatty Ac… Microbial Fatty… EXP     
#>  2     562 NA        NA           Escherich… Fatty Ac… Microbial Fatty… EXP     
#>  3     562 NA        NA           Escherich… Fatty Ac… Microbial Fatty… EXP     
#>  4     562 NA        NA           Escherich… Fatty Ac… Microbial Fatty… EXP     
#>  5     562 NA        NA           Escherich… Fatty Ac… Microbial Fatty… EXP     
#>  6     562 NA        NA           Escherich… Fatty Ac… Microbial Fatty… EXP     
#>  7     562 NA        NA           Escherich… Fatty Ac… Microbial Fatty… EXP     
#>  8     562 NA        NA           Escherich… Fatty Ac… Microbial Fatty… EXP     
#>  9     562 NA        NA           Escherich… Fatty Ac… Microbial Fatty… EXP     
#> 10     562 NA        NA           Escherich… Fatty Ac… Microbial Fatty… EXP     
#> # … with 138,486 more rows, and 7 more variables: Confidence_interval <chr>,
#> #   Attribute_new <chr>, Attribute_value <dbl>, Rank <chr>, Parent_name <chr>,
#> #   Parent_NCBI_ID <chr>, Parent_rank <chr>
x <- fattyAcidComposition()
x
#> # A tibble: 138,496 × 14
#>    NCBI_ID Genome_ID Accession_ID Taxon_name Attribute Attribute_source Evidence
#>      <int> <lgl>     <lgl>        <chr>      <chr>     <chr>            <chr>   
#>  1     562 NA        NA           Escherich… Fatty Ac… Microbial Fatty… EXP     
#>  2     562 NA        NA           Escherich… Fatty Ac… Microbial Fatty… EXP     
#>  3     562 NA        NA           Escherich… Fatty Ac… Microbial Fatty… EXP     
#>  4     562 NA        NA           Escherich… Fatty Ac… Microbial Fatty… EXP     
#>  5     562 NA        NA           Escherich… Fatty Ac… Microbial Fatty… EXP     
#>  6     562 NA        NA           Escherich… Fatty Ac… Microbial Fatty… EXP     
#>  7     562 NA        NA           Escherich… Fatty Ac… Microbial Fatty… EXP     
#>  8     562 NA        NA           Escherich… Fatty Ac… Microbial Fatty… EXP     
#>  9     562 NA        NA           Escherich… Fatty Ac… Microbial Fatty… EXP     
#> 10     562 NA        NA           Escherich… Fatty Ac… Microbial Fatty… EXP     
#> # … with 138,486 more rows, and 7 more variables: Confidence_interval <chr>,
#> #   Attribute_new <chr>, Attribute_value <dbl>, Rank <chr>, Parent_name <chr>,
#> #   Parent_NCBI_ID <chr>, Parent_rank <chr>
…
