bugphyzz • bugphyzz
…
library(bugphyzz)
library(purrr)
library(tibble)

The main function for importing datasets is the
physiologies function, which has a single argument,
keyword, and returns a list of data.frames. The
keyword argument accepts a character vector specifying the
name(s) of the dataset(s) that will be imported.

A datset with categorical attribute values:

aer <- as_tibble(physiologies("aerophilicity")[[1]])
aer
#> # A tibble: 11,470 × 18
#>    NCBI_ID Genome_ID Accession…¹ Taxon…² Attri…³ Attri…⁴ Attri…⁵ Evide…⁶ Frequ…⁷
#>    <chr>   <lgl>     <chr>       <chr>   <chr>   <lgl>   <chr>   <chr>   <chr>  
#>  1 291967  NA        ""          Acaric… aerobic TRUE    https:… exp     always 
#>  2 291968  NA        ""          Acaric… aerobic TRUE    https:… tas     always 
#>  3 329726  NA        "NC_009925… Acaryo… aerobic TRUE    http:/… nas     always 
#>  4 435     NA        ""          Acetob… aerobic TRUE    https:… tas     always 
#>  5 435     NA        ""          Acetob… aerobic TRUE    https:… tas     always 
#>  6 178900  NA        ""          Acetob… aerobic TRUE    https:… tas     always 
#>  7 146475  NA        ""          Acetob… aerobic TRUE    https:… tas     always 
#>  8 178901  NA        ""          Acetob… aerobic TRUE    https:… tas     always 
#>  9 304077  NA        ""          Acetob… aerobic TRUE    https:… tas     always 
#> 10 146474  NA        ""          Acetob… aerobic TRUE    https:… tas     always 
#> # … with 11,460 more rows, 9 more variables: Confidence_in_curation <chr>,
#> #   Note <lgl>, Strain <lgl>, Rank <chr>, Parent_name <chr>,
#> #   Parent_NCBI_ID <chr>, Parent_rank <chr>, Attribute_type <chr>,
#> #   Attribute_group <chr>, and abbreviated variable names ¹​Accession_ID,
#> #   ²​Taxon_name, ³​Attribute, ⁴​Attribute_value, ⁵​Attribute_source, ⁶​Evidence,
#> #   ⁷​Frequency

A dataset with numeric attribute values:

ph <- as_tibble(physiologies('optimal ph')[[1]])
#> Finished optimal ph
ph
#> # A tibble: 886 × 16
#>    NCBI_ID Genome_ID Accession…¹ Taxon…² Attri…³ Attri…⁴ Attri…⁵ Evide…⁶ Frequ…⁷
#>    <chr>   <lgl>     <lgl>       <chr>   <chr>     <dbl> <chr>   <chr>   <chr>  
#>  1 178606  NA        NA          Leptos… optima…    1.65 https:… nas     unknown
#>  2 53633   NA        NA          Sulfob… optima…    1.8  https:… nas     unknown
#>  3 160808  NA        NA          Acidit… optima…    1.9  https:… nas     unknown
#>  4 920     NA        NA          Acidit… optima…    2    https:… nas     unknown
#>  5 53635   NA        NA          Acidim… optima…    2    https:… nas     unknown
#>  6 50339   NA        NA          Thermo… optima…    2    https:… nas     unknown
#>  7 28034   NA        NA          Sulfob… optima…    2.15 https:… nas     unknown
#>  8 67780   NA        NA          Edward… optima…    2.5  https:… nas     unknown
#>  9 405212  NA        NA          Alicyc… optima…    3.5  https:… nas     unknown
#> 10 61645   NA        NA          Entero… optima…    3.5  https:… nas     unknown
#> # … with 876 more rows, 7 more variables: Confidence_in_curation <chr>,
#> #   Rank <chr>, Parent_name <chr>, Parent_NCBI_ID <chr>, Parent_rank <chr>,
#> #   Attribute_type <chr>, Attribute_group <chr>, and abbreviated variable names
#> #   ¹​Accession_ID, ²​Taxon_name, ³​Attribute, ⁴​Attribute_value,
#> #   ⁵​Attribute_source, ⁶​Evidence, ⁷​Frequency
…
You can use the keyword = "all" to import all of the
datasets:

## Import all of the datasets available through the physiologies function
phys <- map(physiologies(keyword = "all"), as_tibble)

A separate function is provided to import the fatty acid compositions
dataset, fattyAcidComposition. This function takes no
arguments and returns a single data.frame object:

fac <- as_tibble(fattyAcidComposition())
fac
#> # A tibble: 138,496 × 15
#>    NCBI_ID Genome_ID Accession…¹ Taxon…² Attri…³ Attri…⁴ Attri…⁵ Evide…⁶ Frequ…⁷
#>      <int> <lgl>     <lgl>       <chr>   <chr>     <dbl> <chr>   <chr>   <chr>  
#>  1     562 NA        NA          Escher… Br-C10…       0 Microb… exp     unknown
#>  2     562 NA        NA          Escher… Br-C11…       0 Microb… exp     unknown
#>  3     562 NA        NA          Escher… Br-C12…       0 Microb… exp     unknown
#>  4     562 NA        NA          Escher… Br-C13…       0 Microb… exp     unknown
#>  5     562 NA        NA          Escher… Br-C13…       0 Microb… exp     unknown
#>  6     562 NA        NA          Escher… Br-C14…       0 Microb… exp     unknown
#>  7     562 NA        NA          Escher… Br-C14…       0 Microb… exp     unknown
#>  8     562 NA        NA          Escher… Br-C15…       0 Microb… exp     unknown
#>  9     562 NA        NA          Escher… Br-C15…       0 Microb… exp     unknown
#> 10     562 NA        NA          Escher… Br-C15…       0 Microb… exp     unknown
#> # … with 138,486 more rows, 6 more variables: Confidence_in_curation <chr>,
#> #   Rank <chr>, Parent_name <chr>, Parent_NCBI_ID <int>, Parent_rank <chr>,
#> #   full_source <chr>, and abbreviated variable names ¹​Accession_ID,
#> #   ²​Taxon_name, ³​Attribute, ⁴​Attribute_value, ⁵​Attribute_source, ⁶​Evidence,
#> #   ⁷​Frequency
…
